{
  "datasource" : [
    {
      "key" : "0020-mitre-2015",
      "data" : "cve",
      "source" : "mitre",
      "name" : "MITRE",
      "description" : "MITRE 2015",
      "cve_filter" : "CVE-2015",
      "init" : "bin/mitre/srtool_mitre.py -I --source='Mitre 2015' --file=data/allitems-cvrf-year-2015.xml --url-file=allitems-cvrf-year-2015.xml",
      "update" : "bin/mitre/srtool_mitre.py -u --source='Mitre 2015' --file=data/allitems-cvrf-year-2015.xml --url-file=allitems-cvrf-year-2015.xml",
      "lookup" : "bin/mitre/srtool_mitre.py --file=data/allitems-cvrf-year-2015.xml %command%",
      "update_frequency" : "3",
      "_comment_" : "Update on Saturdays at 2:00 am",
      "update_time" : "{\"weekday\":\"5\",\"hour\":\"2\"}"
    }
  ]
}
