{
  "Notify_Categories" : [
    {
      "name" : "CVE"
    },

    {
      "name" : "CVE_NEW_PRIORITY"
    },

    {
      "name" : "CVE_CHANGE_PRIORITY"
    },

    {
      "name" : "VULNERABILITY"
    },

    {
      "name" : "INVESTIGATION"
    },

    {
      "name" : "DEFECT"
    },

    {
      "name" : "DEFECT_CREATE"
    },

    {
      "name" : "DEFECT_CHANGE_STATUS"
    },

    {
      "name" : "DEFECT_CHANGE_STATUS"
    },

    {
      "name" : "SRT"
    },

    {
      "name" : "SRT_BUG"
    },

    {
      "name" : "FYI"
    },

    {
      "name" : "TRIAGE"
    }

   ]
}
