{
  "datasource" : [
    {
      "key" : "0010-nist-2016",
      "data" : "cve",
      "source" : "nist",
      "name" : "NIST",
      "description" : "NIST 2016",
      "cve_filter" : "CVE-2016",
      "init" : "bin/nist/srtool_nist.py -I --source='NIST 2016' --file=data/nvdcve-1.0-2016.json --url-file=nvdcve-1.0-2016.json.gz --url-meta=nvdcve-1.0-2016.meta",
      "update" : "bin/nist/srtool_nist.py -n --source='NIST 2016' --file=data/nvdcve-1.0-2016.json --url-file=nvdcve-1.0-2016.json.gz --url-meta=nvdcve-1.0-2016.meta",
      "lookup" : "bin/nist/srtool_nist.py --file=data/nvdcve-1.0-2016.json %command%",
      "update_frequency" : "3",
      "_comment_" : "Update on Saturdays at 2:00 am",
      "update_time" : "{\"weekday\":\"5\",\"hour\":\"2\"}"
    }
  ]
}
