{
  "datasource" : [
    {
      "key" : "0030-redhat",
      "data" : "cve",
      "source" : "redhat",
      "name" : "RedHat",
      "description" : "RedHat",
      "attributes" : "ALT-SOURCE REST-ONLY",
      "cve_filter" : "CVE-",
      "init" : "",
      "update" : "",
      "lookup" : "bin/redhat/srtool_redhat.py %command%",
      "update_frequency" : "3",
      "_comment_" : "Update on Saturdays at 2:00 am",
      "update_time" : "{\"weekday\":\"5\",\"hour\":\"2\"}"
    }
  ]
}
